…
``` r
data("instacart")

theme_set(theme_minimal() + theme(legend.position = "bottom"))
```

# Problem 1

    ## # A tibble: 1,384,617 × 15
    ##    order_id product_id add_to_cart_order reordered user_id eval_set order_number
    ##       <int>      <int>             <int>     <int>   <int> <chr>           <int>
    ##  1        1      49302                 1         1  112108 train               4
    ##  2        1      11109                 2         1  112108 train               4
    ##  3        1      10246                 3         0  112108 train               4
    ##  4        1      49683                 4         0  112108 train               4
    ##  5        1      43633                 5         1  112108 train               4
    ##  6        1      13176                 6         0  112108 train               4
    ##  7        1      47209                 7         0  112108 train               4
    ##  8        1      22035                 8         1  112108 train               4
    ##  9       36      39612                 1         0   79431 train              23
    ## 10       36      19660                 2         1   79431 train              23
    ## # ℹ 1,384,607 more rows
    ## # ℹ 8 more variables: order_dow <int>, order_hour_of_day <int>,
    ## #   days_since_prior_order <int>, product_name <chr>, aisle_id <int>,
    ## #   department_id <int>, aisle <chr>, department <chr>
…
``` r
instacart |>
  group_by(aisle, product_name) |>
  summarize(n_obs = n()) |>
  arrange(aisle, desc(n_obs)) |>
  top_n(3, n_obs)
```

    ## `summarise()` has grouped output by 'aisle'. You can override using the
    ## `.groups` argument.

    ## # A tibble: 406 × 3
    ## # Groups:   aisle [134]
    ##    aisle                  product_name                                     n_obs
    ##    <chr>                  <chr>                                            <int>
    ##  1 air fresheners candles Air Effects Linen & Sky Scent Air Freshener Spr…    36
    ##  2 air fresheners candles After The Rain Gel Air Freshener                    32
    ##  3 air fresheners candles Air Effects Linen & Sky Air Refresher               30
    ##  4 asian foods            Organic Sea Salt Roasted Seaweed Snacks            345
    ##  5 asian foods            Sriracha Chili Sauce                               188
    ##  6 asian foods            Coconut Milk                                       185
    ##  7 baby accessories       Free & Clear Unscented Baby Wipes                  225
    ##  8 baby accessories       Totz Toothbrush Extra Soft 18+ Months               23
    ##  9 baby accessories       Swaddlers Size 4 Giant Pack Diapers                 10
    ## 10 baby bath body care    Calming Shampoo & Bodywash                          18
    ## # ℹ 396 more rows
…
